{
  "result":{
      "userActivityId":2019110200000001,
      "pin":"清风5683",
      "endDate":1572710399000,
      "class":"com.jdh.marketing.soa.client.domain.boost.StartBoostResp",
      "startDate":1572666062795
  },
  "code":0,
  "message":"Success",
  "class":"com.jdh.marketing.soa.client.domain.RpcResult"
}