{
  "result":[
      {
          "userActivityId":2019110500000001,
          "boostNumbers":0,
          "endDate":1572969599000,
          "countdown":20156155,
          "requiredQuantity":1,
          "ladderPeople":1,
          "userType":0,
          "boostState":1000,
          "class":"com.jdh.marketing.soa.client.domain.activity.UserActivityDTO",
          "startDate":1572915814373
      },
      {
          "userActivityId":2019110400000007,
          "boostNumbers":2,
          "endDate":1572883199000,
          "countdown":20156155,
          "requiredQuantity":1,
          "ladderPeople":3,
          "userType":0,
          "boostState":2001,
          "class":"com.jdh.marketing.soa.client.domain.activity.UserActivityDTO",
          "startDate":1572857881961
      },
      {
          "userActivityId":2019110400000007,
          "boostNumbers":2,
          "endDate":1572883199000,
          "countdown":20156155,
          "requiredQuantity":1,
          "ladderPeople":3,
          "userType":0,
          "boostState":2000,
          "class":"com.jdh.marketing.soa.client.domain.activity.UserActivityDTO",
          "startDate":1572857881961
      }
  ],
  "code":0,
  "message":"OK",
  "class":"com.jdh.marketing.soa.client.domain.RpcResult"
}